{
	"info": {
		"_postman_id": "5918298d-9595-4faa-8366-078e0228a0dd",
		"name": "REST API - Miden",
		"schema": "https://schema.getpostman.com/json/collection/v2.1.0/collection.json"
	},
	"item": [
		{
			"name": "REGISTER User",
			"request": {
				"method": "POST",
				"header": [
					{
						"key": "Content-Type",
						"value": "application/json",
						"type": "text"
					},
					{
						"key": "Authorization",
						"value": "Bearer eyJ0eXAiOiJKV1QiLCJhbGciOiJIUzI1NiJ9.eyJpc3MiOiJodHRwOlwvXC9sdW1lblwvbG9naW4iLCJpYXQiOjE1NDE4NTM5NjksImV4cCI6MTU0MTg2MTE2OSwibmJmIjoxNTQxODUzOTY5LCJqdGkiOiI0UTkzVDg1Tk1DMDNSV2g5Iiwic3ViIjoxNywicHJ2IjoiODdlMGFmMWVmOWZkMTU4MTJmZGVjOTcxNTNhMTRlMGIwNDc1NDZhYSIsInJvbGUiOiJEZW5pcyJ9.T0YAcGKf2f_rfN6IGP7AyrimFHh0dL98aWAurSgoX0A",
						"type": "text",
						"disabled": true
					}
				],
				"body": {
					"mode": "raw",
					"raw": "{\n\t\"name\" : \"Samuel Jakson\",\n\t\"email\" : \"samueljakson@gmail.com\",\n\t\"password\": 123456,\n\t\"password_confirmation\": 123456\n}"
				},
				"url": {
					"raw": "http://lumen/register",
					"protocol": "http",
					"host": [
						"lumen"
					],
					"path": [
						"register"
					]
				}
			},
			"response": []
		},
		{
			"name": "LOGIN User",
			"request": {
				"method": "POST",
				"header": [
					{
						"key": "Content-Type",
						"value": "application/json",
						"type": "text"
					},
					{
						"key": "Authorization",
						"value": "Bearer eyJ0eXAiOiJKV1QiLCJhbGciOiJIUzI1NiJ9.eyJpc3MiOiJodHRwOlwvXC9sdW1lblwvbG9naW4iLCJpYXQiOjE1NDE4NTM5NjksImV4cCI6MTU0MTg2MTE2OSwibmJmIjoxNTQxODUzOTY5LCJqdGkiOiI0UTkzVDg1Tk1DMDNSV2g5Iiwic3ViIjoxNywicHJ2IjoiODdlMGFmMWVmOWZkMTU4MTJmZGVjOTcxNTNhMTRlMGIwNDc1NDZhYSIsInJvbGUiOiJEZW5pcyJ9.T0YAcGKf2f_rfN6IGP7AyrimFHh0dL98aWAurSgoX0A",
						"type": "text"
					}
				],
				"body": {
					"mode": "raw",
					"raw": "{\n\t\"email\" : \"Miden@gmail.com\",\n\t\"password\": 123456\n}"
				},
				"url": {
					"raw": "http://lumen/login",
					"protocol": "http",
					"host": [
						"lumen"
					],
					"path": [
						"login"
					]
				}
			},
			"response": []
		},
		{
			"name": "CREATE User",
			"request": {
				"method": "POST",
				"header": [
					{
						"key": "Content-Type",
						"value": "application/json",
						"type": "text"
					}
				],
				"body": {
					"mode": "raw",
					"raw": " {\n        \"name\": \"Max\",\n        \"email\": \"max@max.com\",\n        \"password\":4444\n }"
				},
				"url": {
					"raw": "http://lumen/users?Content-Type=application/json",
					"protocol": "http",
					"host": [
						"lumen"
					],
					"path": [
						"users"
					],
					"query": [
						{
							"key": "Content-Type",
							"value": "application/json"
						}
					]
				}
			},
			"response": []
		},
		{
			"name": "GET Users",
			"request": {
				"method": "GET",
				"header": [
					{
						"key": "Content-Type",
						"value": "application/json",
						"type": "text"
					}
				],
				"body": {
					"mode": "raw",
					"raw": ""
				},
				"url": {
					"raw": "http://lumen/users?Content-Type=application/json",
					"protocol": "http",
					"host": [
						"lumen"
					],
					"path": [
						"users"
					],
					"query": [
						{
							"key": "Content-Type",
							"value": "application/json"
						}
					]
				}
			},
			"response": []
		},
		{
			"name": "GET Projects",
			"request": {
				"method": "GET",
				"header": [
					{
						"key": "Content-Type",
						"value": "application/json",
						"type": "text"
					},
					{
						"key": "Authorization",
						"value": "Bearer eyJ0eXAiOiJKV1QiLCJhbGciOiJIUzI1NiJ9.eyJpc3MiOiJodHRwOlwvXC9sdW1lblwvbG9naW4iLCJpYXQiOjE1NDE4NTM5NjksImV4cCI6MTU0MTg2MTE2OSwibmJmIjoxNTQxODUzOTY5LCJqdGkiOiI0UTkzVDg1Tk1DMDNSV2g5Iiwic3ViIjoxNywicHJ2IjoiODdlMGFmMWVmOWZkMTU4MTJmZGVjOTcxNTNhMTRlMGIwNDc1NDZhYSIsInJvbGUiOiJEZW5pcyJ9.T0YAcGKf2f_rfN6IGP7AyrimFHh0dL98aWAurSgoX0A",
						"type": "text"
					}
				],
				"body": {
					"mode": "raw",
					"raw": " {\n        \n        \"project_name\": \"TODO SMTH2\",\n        \"description\": \"You must to do something Big and beautiful\",\n        \"status\": true\n}"
				},
				"url": {
					"raw": "http://lumen/projects",
					"protocol": "http",
					"host": [
						"lumen"
					],
					"path": [
						"projects"
					]
				}
			},
			"response": []
		},
		{
			"name": "CREATE Project",
			"request": {
				"method": "POST",
				"header": [
					{
						"key": "Content-Type",
						"name": "Content-Type",
						"value": "application/json",
						"type": "text"
					},
					{
						"key": "Authorization",
						"value": "Bearer eyJ0eXAiOiJKV1QiLCJhbGciOiJIUzI1NiJ9.eyJpc3MiOiJodHRwOlwvXC9sdW1lblwvbG9naW4iLCJpYXQiOjE1NDIwNDg2MzMsImV4cCI6MTU0MjA1NTgzMywibmJmIjoxNTQyMDQ4NjMzLCJqdGkiOiJZbkZHOTVGUm1KcFh1cjhWIiwic3ViIjoxNywicHJ2IjoiODdlMGFmMWVmOWZkMTU4MTJmZGVjOTcxNTNhMTRlMGIwNDc1NDZhYSIsInJvbGUiOiJEZW5pcyJ9.DGOaO4Qsw58ddevjH3HnE5b1QzDLAkbd4kvPrfGOlsE",
						"type": "text"
					}
				],
				"body": {
					"mode": "raw",
					"raw": "{\n        \"project_name\": \"My new project\",\n        \"description\": \"Lorem ipsum \",\n        \"status\": true\n}"
				},
				"url": {
					"raw": "http://lumen/project",
					"protocol": "http",
					"host": [
						"lumen"
					],
					"path": [
						"project"
					]
				},
				"description": "CREATE project"
			},
			"response": []
		},
		{
			"name": "GET Project { id }",
			"request": {
				"method": "GET",
				"header": [
					{
						"key": "Content-Type",
						"value": "application/json",
						"type": "text"
					},
					{
						"key": "Authorization",
						"value": "Bearer eyJ0eXAiOiJKV1QiLCJhbGciOiJIUzI1NiJ9.eyJpc3MiOiJodHRwOlwvXC9sdW1lblwvbG9naW4iLCJpYXQiOjE1NDE4NTM5NjksImV4cCI6MTU0MTg2MTE2OSwibmJmIjoxNTQxODUzOTY5LCJqdGkiOiI0UTkzVDg1Tk1DMDNSV2g5Iiwic3ViIjoxNywicHJ2IjoiODdlMGFmMWVmOWZkMTU4MTJmZGVjOTcxNTNhMTRlMGIwNDc1NDZhYSIsInJvbGUiOiJEZW5pcyJ9.T0YAcGKf2f_rfN6IGP7AyrimFHh0dL98aWAurSgoX0A",
						"type": "text"
					}
				],
				"body": {
					"mode": "raw",
					"raw": " {\n        \n        \"project_name\": \"TODO SMTH\",\n        \"description\": \"You must to do something Big and beautiful\",\n        \"status\": true\n}"
				},
				"url": {
					"raw": "http://lumen/project/3",
					"protocol": "http",
					"host": [
						"lumen"
					],
					"path": [
						"project",
						"3"
					]
				}
			},
			"response": []
		},
		{
			"name": "UPDATE Project  { id }",
			"request": {
				"method": "PUT",
				"header": [
					{
						"key": "Content-Type",
						"value": "application/json",
						"type": "text"
					},
					{
						"key": "Authorization",
						"value": "Bearer eyJ0eXAiOiJKV1QiLCJhbGciOiJIUzI1NiJ9.eyJpc3MiOiJodHRwOlwvXC9sdW1lblwvbG9naW4iLCJpYXQiOjE1NDIwNDg2MzMsImV4cCI6MTU0MjA1NTgzMywibmJmIjoxNTQyMDQ4NjMzLCJqdGkiOiJZbkZHOTVGUm1KcFh1cjhWIiwic3ViIjoxNywicHJ2IjoiODdlMGFmMWVmOWZkMTU4MTJmZGVjOTcxNTNhMTRlMGIwNDc1NDZhYSIsInJvbGUiOiJEZW5pcyJ9.DGOaO4Qsw58ddevjH3HnE5b1QzDLAkbd4kvPrfGOlsE",
						"type": "text"
					}
				],
				"body": {
					"mode": "raw",
					"raw": " {\n \t    \"project_name\": \"New project name\",\n        \"description\": \"Youtube\",\n        \"status\": false\n        \n}"
				},
				"url": {
					"raw": "http://lumen/project/12",
					"protocol": "http",
					"host": [
						"lumen"
					],
					"path": [
						"project",
						"12"
					]
				}
			},
			"response": []
		},
		{
			"name": "DELETE Project { id }",
			"request": {
				"method": "DELETE",
				"header": [
					{
						"key": "Content-Type",
						"value": "application/json",
						"type": "text"
					},
					{
						"key": "Authorization",
						"value": "Bearer eyJ0eXAiOiJKV1QiLCJhbGciOiJIUzI1NiJ9.eyJpc3MiOiJodHRwOlwvXC9sdW1lblwvbG9naW4iLCJpYXQiOjE1NDE4NTM5NjksImV4cCI6MTU0MTg2MTE2OSwibmJmIjoxNTQxODUzOTY5LCJqdGkiOiI0UTkzVDg1Tk1DMDNSV2g5Iiwic3ViIjoxNywicHJ2IjoiODdlMGFmMWVmOWZkMTU4MTJmZGVjOTcxNTNhMTRlMGIwNDc1NDZhYSIsInJvbGUiOiJEZW5pcyJ9.T0YAcGKf2f_rfN6IGP7AyrimFHh0dL98aWAurSgoX0A",
						"type": "text"
					}
				],
				"body": {
					"mode": "raw",
					"raw": ""
				},
				"url": {
					"raw": "http://lumen/project/17",
					"protocol": "http",
					"host": [
						"lumen"
					],
					"path": [
						"project",
						"17"
					]
				}
			},
			"response": []
		},
		{
			"name": "GET Tasks with filter  ( '  ' | date_start |  date_end |  status|  project )",
			"request": {
				"method": "POST",
				"header": [
					{
						"key": "Content-Type",
						"value": "application/json",
						"type": "text"
					},
					{
						"key": "Authorization",
						"value": "Bearer eyJ0eXAiOiJKV1QiLCJhbGciOiJIUzI1NiJ9.eyJpc3MiOiJodHRwOlwvXC9sdW1lblwvbG9naW4iLCJpYXQiOjE1NDIwMzQ0NDksImV4cCI6MTU0MjA0MTY0OSwibmJmIjoxNTQyMDM0NDQ5LCJqdGkiOiJ2OWRBb0hveFZ6OGdoZDlKIiwic3ViIjoxNywicHJ2IjoiODdlMGFmMWVmOWZkMTU4MTJmZGVjOTcxNTNhMTRlMGIwNDc1NDZhYSIsInJvbGUiOiJEZW5pcyJ9.Venc77ESJ_4YYz1lRFmQBdGS_omBr-fTd75kMsyQtuc",
						"type": "text"
					}
				],
				"body": {
					"mode": "raw",
					"raw": " {\n        \n     \n        \"filter\": \"project\",\n        \"number_project\" : 1\n\n   \n}"
				},
				"url": {
					"raw": "http://lumen/tasks",
					"protocol": "http",
					"host": [
						"lumen"
					],
					"path": [
						"tasks"
					]
				}
			},
			"response": []
		},
		{
			"name": "GET Task { id }",
			"request": {
				"method": "GET",
				"header": [
					{
						"key": "Content-Type",
						"value": "application/json",
						"type": "text"
					},
					{
						"key": "Authorization",
						"value": "Bearer eyJ0eXAiOiJKV1QiLCJhbGciOiJIUzI1NiJ9.eyJpc3MiOiJodHRwOlwvXC9sdW1lblwvbG9naW4iLCJpYXQiOjE1NDE4NTM5NjksImV4cCI6MTU0MTg2MTE2OSwibmJmIjoxNTQxODUzOTY5LCJqdGkiOiI0UTkzVDg1Tk1DMDNSV2g5Iiwic3ViIjoxNywicHJ2IjoiODdlMGFmMWVmOWZkMTU4MTJmZGVjOTcxNTNhMTRlMGIwNDc1NDZhYSIsInJvbGUiOiJEZW5pcyJ9.T0YAcGKf2f_rfN6IGP7AyrimFHh0dL98aWAurSgoX0A",
						"type": "text"
					}
				],
				"body": {
					"mode": "raw",
					"raw": " {\n        \n        \"project_name\": \"TODO SMTH\",\n        \"description\": \"You must to do something Big and beautiful\",\n        \"status\": true\n}"
				},
				"url": {
					"raw": "http://lumen/task/3",
					"protocol": "http",
					"host": [
						"lumen"
					],
					"path": [
						"task",
						"3"
					]
				}
			},
			"response": []
		},
		{
			"name": "CREATE Task ",
			"request": {
				"method": "POST",
				"header": [
					{
						"key": "Content-Type",
						"value": "application/json",
						"type": "text"
					},
					{
						"key": "Authorization",
						"value": "Bearer eyJ0eXAiOiJKV1QiLCJhbGciOiJIUzI1NiJ9.eyJpc3MiOiJodHRwOlwvXC9sdW1lblwvbG9naW4iLCJpYXQiOjE1NDE4NTM5NjksImV4cCI6MTU0MTg2MTE2OSwibmJmIjoxNTQxODUzOTY5LCJqdGkiOiI0UTkzVDg1Tk1DMDNSV2g5Iiwic3ViIjoxNywicHJ2IjoiODdlMGFmMWVmOWZkMTU4MTJmZGVjOTcxNTNhMTRlMGIwNDc1NDZhYSIsInJvbGUiOiJEZW5pcyJ9.T0YAcGKf2f_rfN6IGP7AyrimFHh0dL98aWAurSgoX0A",
						"type": "text"
					}
				],
				"body": {
					"mode": "raw",
					"raw": " {\n        \n        \"task_name\": \"Some new task\",\n        \"task_description\": \"Decription task example\",\n        \"start_date\": \"2018-11-11 11:29:28\",\n        \"end_date\": \"2018-11-11 11:29:28\",\n        \"project_id\": 10,\n        \"status\": 4\n        \n}"
				},
				"url": {
					"raw": "http://lumen/task",
					"protocol": "http",
					"host": [
						"lumen"
					],
					"path": [
						"task"
					]
				}
			},
			"response": []
		},
		{
			"name": "CREATE Task with add user_id in relation",
			"request": {
				"method": "POST",
				"header": [
					{
						"key": "Content-Type",
						"value": "application/json",
						"type": "text"
					},
					{
						"key": "Authorization",
						"value": "Bearer eyJ0eXAiOiJKV1QiLCJhbGciOiJIUzI1NiJ9.eyJpc3MiOiJodHRwOlwvXC9sdW1lblwvbG9naW4iLCJpYXQiOjE1NDE4NTM5NjksImV4cCI6MTU0MTg2MTE2OSwibmJmIjoxNTQxODUzOTY5LCJqdGkiOiI0UTkzVDg1Tk1DMDNSV2g5Iiwic3ViIjoxNywicHJ2IjoiODdlMGFmMWVmOWZkMTU4MTJmZGVjOTcxNTNhMTRlMGIwNDc1NDZhYSIsInJvbGUiOiJEZW5pcyJ9.T0YAcGKf2f_rfN6IGP7AyrimFHh0dL98aWAurSgoX0A",
						"type": "text"
					}
				],
				"body": {
					"mode": "raw",
					"raw": " {\n        \n        \"task_name\": \"MIDEEEEEEEENNNNNNNNN\",\n        \"task_description\": \"Decription task example\",\n        \"start_date\": \"2018-11-11 11:29:28\",\n        \"end_date\": \"2018-11-11 11:29:28\",\n        \"project_id\": 1,\n        \"status\": 4,\n        \"user_id\": 2\n        \n}"
				},
				"url": {
					"raw": "http://lumen/task",
					"protocol": "http",
					"host": [
						"lumen"
					],
					"path": [
						"task"
					]
				}
			},
			"response": []
		},
		{
			"name": "UPDATE Task { id }",
			"request": {
				"method": "PUT",
				"header": [
					{
						"key": "Content-Type",
						"value": "application/json",
						"type": "text"
					},
					{
						"key": "Authorization",
						"value": "Bearer eyJ0eXAiOiJKV1QiLCJhbGciOiJIUzI1NiJ9.eyJpc3MiOiJodHRwOlwvXC9sdW1lblwvbG9naW4iLCJpYXQiOjE1NDE4NTM5NjksImV4cCI6MTU0MTg2MTE2OSwibmJmIjoxNTQxODUzOTY5LCJqdGkiOiI0UTkzVDg1Tk1DMDNSV2g5Iiwic3ViIjoxNywicHJ2IjoiODdlMGFmMWVmOWZkMTU4MTJmZGVjOTcxNTNhMTRlMGIwNDc1NDZhYSIsInJvbGUiOiJEZW5pcyJ9.T0YAcGKf2f_rfN6IGP7AyrimFHh0dL98aWAurSgoX0A",
						"type": "text"
					}
				],
				"body": {
					"mode": "raw",
					"raw": " {\n        \n        \"task_name\": \"upd title\",\n        \"task_description\": \"www777\",\n        \"start_date\": \"2018-11-11 11:29:28\",\n        \"end_date\": \"2018-11-11 11:29:28\",\n        \"project_id\": 8,\n        \"status\": 1\n        \n}"
				},
				"url": {
					"raw": "http://lumen/task/37",
					"protocol": "http",
					"host": [
						"lumen"
					],
					"path": [
						"task",
						"37"
					]
				}
			},
			"response": []
		},
		{
			"name": "UPDATE Task { id } and change user_id",
			"request": {
				"method": "PUT",
				"header": [
					{
						"key": "Content-Type",
						"value": "application/json",
						"type": "text"
					},
					{
						"key": "Authorization",
						"value": "Bearer eyJ0eXAiOiJKV1QiLCJhbGciOiJIUzI1NiJ9.eyJpc3MiOiJodHRwOlwvXC9sdW1lblwvbG9naW4iLCJpYXQiOjE1NDE4NTM5NjksImV4cCI6MTU0MTg2MTE2OSwibmJmIjoxNTQxODUzOTY5LCJqdGkiOiI0UTkzVDg1Tk1DMDNSV2g5Iiwic3ViIjoxNywicHJ2IjoiODdlMGFmMWVmOWZkMTU4MTJmZGVjOTcxNTNhMTRlMGIwNDc1NDZhYSIsInJvbGUiOiJEZW5pcyJ9.T0YAcGKf2f_rfN6IGP7AyrimFHh0dL98aWAurSgoX0A",
						"type": "text"
					}
				],
				"body": {
					"mode": "raw",
					"raw": " {\n        \n        \"task_name\": \"Task_EDITED\",\n        \"task_description\": \"Decription task example EDITED\",\n        \"start_date\": \"2018-11-11 11:29:28\",\n        \"end_date\": \"2018-11-11 11:29:28\",\n        \"project_id\": 1,\n        \"status\": 1,\n        \"user_id\" : 1\n        \n}"
				},
				"url": {
					"raw": "http://lumen/task/11",
					"protocol": "http",
					"host": [
						"lumen"
					],
					"path": [
						"task",
						"11"
					]
				}
			},
			"response": []
		},
		{
			"name": "DELETE Task { id }",
			"request": {
				"method": "DELETE",
				"header": [
					{
						"key": "Content-Type",
						"value": "application/json",
						"type": "text"
					},
					{
						"key": "Authorization",
						"value": "Bearer eyJ0eXAiOiJKV1QiLCJhbGciOiJIUzI1NiJ9.eyJpc3MiOiJodHRwOlwvXC9sdW1lblwvbG9naW4iLCJpYXQiOjE1NDE4NTM5NjksImV4cCI6MTU0MTg2MTE2OSwibmJmIjoxNTQxODUzOTY5LCJqdGkiOiI0UTkzVDg1Tk1DMDNSV2g5Iiwic3ViIjoxNywicHJ2IjoiODdlMGFmMWVmOWZkMTU4MTJmZGVjOTcxNTNhMTRlMGIwNDc1NDZhYSIsInJvbGUiOiJEZW5pcyJ9.T0YAcGKf2f_rfN6IGP7AyrimFHh0dL98aWAurSgoX0A",
						"type": "text"
					}
				],
				"body": {
					"mode": "raw",
					"raw": ""
				},
				"url": {
					"raw": "http://lumen/task/8",
					"protocol": "http",
					"host": [
						"lumen"
					],
					"path": [
						"task",
						"8"
					]
				}
			},
			"response": []
		}
	]
}